Attendance Time and Intercolony Movements
…
I think simply filtering out the shortest segments does a lot to remove the extraneous inter-colony visits, but there are still some vacillations that I don’t think are real inter-colony movements. This approach still leaves us with a dataset where Bird 149 makes 10 intercolony movements in a single night and Bird 146 makes 17.

# A tibble: 108 × 3
# Groups:   tag_id, nightdate [108]
   tag_id nightdate      n
    <dbl> <date>     <int>
 1    145 2025-06-16     1
 2    145 2025-06-19     5
 3    145 2025-06-20     3
 4    145 2025-06-23     1
 5    145 2025-06-24     3
 6    145 2025-06-27     4
 7    145 2025-06-29     2
 8    145 2025-06-30     3
 9    145 2025-07-03     4
10    145 2025-07-04     3
# ℹ 98 more rows
…
